A Guide to Wine
…
library(ggplot2)
library(dplyr)
library(stringr)
library(tidyr)

Part 1: Data Collection

In order to load the dataset, we first need to download it from https://www.kaggle.com/zynicide/wine-reviews/data. The dataset will be downloaded as a CSV (comma-separated value), as a file called winemag-data.first150k.csv . We then load our dataset into R using the following code:

# loading code goes here
wine_csv <- read_csv("/Users/tara/Documents/UMD/Senior_Year/Spring2018/CMSC320/Projects/Final_Project/winemag-data_first150k.csv")

wine_csv

## # A tibble: 150,930 x 11
##       X1 country description    designation points price province region_1
##    <int> <chr>   <chr>          <chr>        <int> <dbl> <chr>    <chr>   
##  1     0 US      This tremendo Martha's V     96 235   Califor Napa Va
##  2     1 Spain   Ripe aromas o Carodorum      96 110   Norther Toro    
##  3     2 US      Mac Watson ho Special Se     96  90.0 Califor Knights
##  4     3 US      This spent 20 Reserve         96  65.0 Oregon   Willame
##  5     4 France  This is the t La Brlade      95  66.0 Provence Bandol  
##  6     5 Spain   Deep, dense a Numanthia       95  73.0 Norther Toro    
##  7     6 Spain   Slightly grit San Romn       95  65.0 Norther Toro    
##  8     7 Spain   Lush cedary b Carodorum      95 110   Norther Toro    
##  9     8 US      This re-named Silice          95  65.0 Oregon   Chehale
## 10     9 US      The producer  Gap's Crow     95  60.0 Califor Sonoma 
## # ... with 150,920 more rows, and 3 more variables: region_2 <chr>,
## #   variety <chr>, winery <chr>
…
Part 2: Data Analysis and Visualisation

Price of Wine vs Point Value Rating

# pipeline goes here
wine_pipe <- wine_csv %>%
  #filter(points > 90) %>%
  filter(!is.na(points)) %>%
  filter(!is.na(price)) %>%
  select(points, price) %>%
  group_by(points) %>%
  arrange(points)
wine_pipe

## # A tibble: 137,235 x 2
## # Groups:   points [21]
##    points price
##     <int> <dbl>
##  1     80 13.0 
##  2     80  5.00
##  3     80 17.0 
##  4     80 17.0 
##  5     80  8.00
##  6     80 14.0 
##  7     80 18.0 
##  8     80 11.0 
##  9     80 15.0 
## 10     80 12.0 
## # ... with 137,225 more rows
…
Here is a plot that visualises the point value rating of a wine against the region where the wine was produced. As you can tell by the code, weve only plotted wines with a point value rating above a 90, and a price above $1000. This is due to having too many data points. If we had plotted them all, the plot would be unreadable. This current plot indicates that of wines that are priced at over $1000, more wines made in the region of Champagne have point value ratings of 300 than any other wine from any other region.

Country of Origin vs Variety of Wine

# pipeline goes here
wine_pipe3 <- wine_csv %>%
  #filter(points > 90) %>%
  filter(price > 500) %>%
  filter(!is.na(country)) %>%
  select(variety, country) %>%
  group_by(variety) %>%
  arrange(variety)
wine_pipe3

## # A tibble: 73 x 2
## # Groups:   variety [18]
##    variety                  country
##    <chr>                    <chr>  
##  1 Bordeaux-style Red Blend France 
##  2 Bordeaux-style Red Blend France 
##  3 Bordeaux-style Red Blend France 
##  4 Bordeaux-style Red Blend France 
##  5 Bordeaux-style Red Blend France 
##  6 Bordeaux-style Red Blend France 
##  7 Bordeaux-style Red Blend France 
##  8 Bordeaux-style Red Blend France 
##  9 Bordeaux-style Red Blend France 
## 10 Bordeaux-style Red Blend France 
## # ... with 63 more rows
…
The bar graph above displays Country of Origin vs Variety of Wine. From this, we can see that the United States produces the most Cabernet Sauvignon and Chardonnay wines, followed by Spain with the Carignan and Tempranillo wines. We can also tell that Australia doesnt produce many Shiraz wines.

Point Value Rating vs Country of Origin

# pipeline goes here
wine_pipe4 <- wine_csv %>%
  #filter(points > 90) %>%
  #filter(price > 1000) %>%
  filter(!is.na(country)) %>%
  select(points, country) %>%
  group_by(country) %>%
  arrange(country)
wine_pipe4

## # A tibble: 150,925 x 2
## # Groups:   country [48]
##    points country  
##     <int> <chr>    
##  1     88 Albania  
##  2     88 Albania  
##  3     91 Argentina
##  4     91 Argentina
##  5     86 Argentina
##  6     86 Argentina
##  7     88 Argentina
##  8     87 Argentina
##  9     88 Argentina
## 10     94 Argentina
## # ... with 150,915 more rows
…
This bar graph shows the Point Value Rating of wines by their Country of Origin. From this we can tell that the United States ranks fairly highly in terms of Point Value Rating, as does France, Italy, Australia, and Portugal among others.

Price of Wine vs Country of Origin

# pipeline goes here
wine_pipe5 <- wine_csv %>%
  #filter(points > 90) %>%
  filter(!is.na(country)) %>%
  select(country, price) %>%
  group_by(country) %>%
  arrange(country)
wine_pipe5

## # A tibble: 150,925 x 2
## # Groups:   country [48]
##    country   price
##    <chr>     <dbl>
##  1 Albania    20.0
##  2 Albania    20.0
##  3 Argentina  30.0
##  4 Argentina  25.0
##  5 Argentina  12.0
##  6 Argentina  15.0
##  7 Argentina  26.0
##  8 Argentina  15.0
##  9 Argentina  15.0
## 10 Argentina  50.0
## # ... with 150,915 more rows
…
#determine standard deviation of points:
wine_csv %>% summarize(stdDevPoints = sd(points), na.rm = TRUE)

## # A tibble: 1 x 2
##   stdDevPoints na.rm
##          <dbl> <lgl>
## 1         3.22 T

#hypothesis test
sample_df <- wine_csv %>% sample_n(100)
sample_df

## # A tibble: 100 x 11
##        X1 country  description  designation points price province region_1
##     <int> <chr>    <chr>        <chr>        <int> <dbl> <chr>    <chr>   
##  1   4909 US       This blend  Rockin' One     90  49.0 Califor Paso Ro
##  2  82820 US       This wine's <NA>            90  32.0 Califor Santa L
##  3  92121 US       Nicely dry  San Saba V     85  23.0 Califor Monterey
##  4  15789 Austria  This is rou Guttenberg      89  NA   Burgenl <NA>    
##  5 134145 US       Cool climat <NA>            86  11.0 Califor Mendoci
##  6   4931 Italy    Bright berr Bacco in T     87  18.0 Tuscany  Toscana 
##  7  15518 Spain    Sweet on th La Calera      89  27.0 Norther Toro    
##  8  55360 Austral This wine d French Oak      86  17.0 New Sou Hunter 
##  9 100141 US       Tart and ch Red Wine        86  22.0 Washing Washing
## 10  75804 France   Dark in col <NA>            89  25.0 Bordeaux Haut-M
## # ... with 90 more rows, and 3 more variables: region_2 <chr>,
## #   variety <chr>, winery <chr>
…
